[03-Aug-2021 15:16:06 Africa/Nairobi] PHP Deprecated:  Function get_magic_quotes_runtime() is deprecated in C:\xampp74\htdocs\pridesys\super admin\config\includes\fpdf\fpdf.php on line 1043
[03-Aug-2021 15:16:06 Africa/Nairobi] PHP Notice:  session_start(): A session had already been started - ignoring in C:\xampp74\htdocs\pridesys\super admin\header.php on line 3
[03-Aug-2021 15:16:10 Africa/Nairobi] PHP Deprecated:  Function get_magic_quotes_runtime() is deprecated in C:\xampp74\htdocs\pridesys\super admin\config\includes\fpdf\fpdf.php on line 1043
[03-Aug-2021 15:16:10 Africa/Nairobi] PHP Notice:  session_start(): A session had already been started - ignoring in C:\xampp74\htdocs\pridesys\super admin\header.php on line 3
[03-Aug-2021 15:16:12 Africa/Nairobi] PHP Deprecated:  Function get_magic_quotes_runtime() is deprecated in C:\xampp74\htdocs\pridesys\super admin\config\includes\fpdf\fpdf.php on line 1043
[03-Aug-2021 15:16:12 Africa/Nairobi] PHP Notice:  Undefined index: superadmin_superadmin_email_add in C:\xampp74\htdocs\pridesys\super admin\functions\dashboard.php on line 7
[03-Aug-2021 15:16:12 Africa/Nairobi] PHP Notice:  session_start(): A session had already been started - ignoring in C:\xampp74\htdocs\pridesys\super admin\header.php on line 3
[03-Aug-2021 15:17:21 Africa/Nairobi] PHP Deprecated:  Function get_magic_quotes_runtime() is deprecated in C:\xampp74\htdocs\pridesys\super admin\config\includes\fpdf\fpdf.php on line 1043
[03-Aug-2021 15:17:21 Africa/Nairobi] PHP Notice:  session_start(): A session had already been started - ignoring in C:\xampp74\htdocs\pridesys\super admin\header.php on line 3
[03-Aug-2021 15:20:40 Africa/Nairobi] PHP Deprecated:  Function get_magic_quotes_runtime() is deprecated in C:\xampp74\htdocs\pridesys\super admin\config\includes\fpdf\fpdf.php on line 1043
[03-Aug-2021 15:20:40 Africa/Nairobi] PHP Notice:  session_start(): A session had already been started - ignoring in C:\xampp74\htdocs\pridesys\super admin\header.php on line 3
[03-Aug-2021 15:20:47 Africa/Nairobi] PHP Deprecated:  Function get_magic_quotes_runtime() is deprecated in C:\xampp74\htdocs\pridesys\super admin\config\includes\fpdf\fpdf.php on line 1043
[03-Aug-2021 15:20:47 Africa/Nairobi] PHP Notice:  session_start(): A session had already been started - ignoring in C:\xampp74\htdocs\pridesys\super admin\header.php on line 3
[03-Aug-2021 15:21:43 Africa/Nairobi] PHP Deprecated:  Function get_magic_quotes_runtime() is deprecated in C:\xampp74\htdocs\pridesys\super admin\config\includes\fpdf\fpdf.php on line 1043
[03-Aug-2021 15:21:43 Africa/Nairobi] PHP Notice:  session_start(): A session had already been started - ignoring in C:\xampp74\htdocs\pridesys\super admin\header.php on line 3
[03-Aug-2021 15:21:45 Africa/Nairobi] PHP Deprecated:  Function get_magic_quotes_runtime() is deprecated in C:\xampp74\htdocs\pridesys\super admin\config\includes\fpdf\fpdf.php on line 1043
[03-Aug-2021 15:21:45 Africa/Nairobi] PHP Notice:  session_start(): A session had already been started - ignoring in C:\xampp74\htdocs\pridesys\super admin\header.php on line 3
[03-Aug-2021 15:49:53 Africa/Nairobi] PHP Deprecated:  Function get_magic_quotes_runtime() is deprecated in C:\xampp74\htdocs\pridesys\super admin\config\includes\fpdf\fpdf.php on line 1043
[03-Aug-2021 15:49:53 Africa/Nairobi] PHP Notice:  session_start(): A session had already been started - ignoring in C:\xampp74\htdocs\pridesys\super admin\header.php on line 3
[03-Aug-2021 15:54:17 Africa/Nairobi] PHP Deprecated:  Function get_magic_quotes_runtime() is deprecated in C:\xampp74\htdocs\pridesys\super admin\config\includes\fpdf\fpdf.php on line 1043
[03-Aug-2021 15:54:17 Africa/Nairobi] PHP Notice:  Undefined index: superadmin_superadmin_email_add in C:\xampp74\htdocs\pridesys\super admin\functions\dashboard.php on line 7
[03-Aug-2021 15:54:17 Africa/Nairobi] PHP Notice:  session_start(): A session had already been started - ignoring in C:\xampp74\htdocs\pridesys\super admin\header.php on line 3
[03-Aug-2021 15:56:07 Africa/Nairobi] PHP Deprecated:  Function get_magic_quotes_runtime() is deprecated in C:\xampp74\htdocs\pridesys\super admin\config\includes\fpdf\fpdf.php on line 1043
[03-Aug-2021 15:56:07 Africa/Nairobi] PHP Notice:  session_start(): A session had already been started - ignoring in C:\xampp74\htdocs\pridesys\super admin\header.php on line 3
[03-Aug-2021 16:07:14 Africa/Nairobi] PHP Deprecated:  Function get_magic_quotes_runtime() is deprecated in C:\xampp74\htdocs\pridesys\super admin\config\includes\fpdf\fpdf.php on line 1043
[03-Aug-2021 16:07:14 Africa/Nairobi] PHP Notice:  Undefined index: superadmin_superadmin_email_add in C:\xampp74\htdocs\pridesys\super admin\functions\dashboard.php on line 7
[03-Aug-2021 16:07:14 Africa/Nairobi] PHP Notice:  session_start(): A session had already been started - ignoring in C:\xampp74\htdocs\pridesys\super admin\header.php on line 3
[04-Aug-2021 10:21:56 Africa/Nairobi] PHP Deprecated:  Function get_magic_quotes_runtime() is deprecated in C:\xampp74\htdocs\pridesys\super admin\config\includes\fpdf\fpdf.php on line 1043
[04-Aug-2021 10:21:56 Africa/Nairobi] PHP Notice:  Undefined index: superadmin_superadmin_email_add in C:\xampp74\htdocs\pridesys\super admin\functions\dashboard.php on line 7
[04-Aug-2021 10:21:56 Africa/Nairobi] PHP Notice:  session_start(): A session had already been started - ignoring in C:\xampp74\htdocs\pridesys\super admin\header.php on line 3
[04-Aug-2021 11:39:13 Africa/Nairobi] PHP Deprecated:  Function get_magic_quotes_runtime() is deprecated in C:\xampp74\htdocs\pridesys\config\includes\fpdf\fpdf.php on line 1043
[04-Aug-2021 11:39:13 Africa/Nairobi] PHP Notice:  session_start(): A session had already been started - ignoring in C:\xampp74\htdocs\pridesys\super admin\header.php on line 3
[04-Aug-2021 11:39:28 Africa/Nairobi] PHP Deprecated:  Function get_magic_quotes_runtime() is deprecated in C:\xampp74\htdocs\pridesys\config\includes\fpdf\fpdf.php on line 1043
[04-Aug-2021 11:39:28 Africa/Nairobi] PHP Notice:  session_start(): A session had already been started - ignoring in C:\xampp74\htdocs\pridesys\super admin\header.php on line 3
[04-Aug-2021 11:40:47 Africa/Nairobi] PHP Deprecated:  Function get_magic_quotes_runtime() is deprecated in C:\xampp74\htdocs\pridesys\config\includes\fpdf\fpdf.php on line 1043
[04-Aug-2021 11:40:47 Africa/Nairobi] PHP Notice:  session_start(): A session had already been started - ignoring in C:\xampp74\htdocs\pridesys\super admin\header.php on line 3
[04-Aug-2021 11:41:07 Africa/Nairobi] PHP Deprecated:  Function get_magic_quotes_runtime() is deprecated in C:\xampp74\htdocs\pridesys\config\includes\fpdf\fpdf.php on line 1043
[04-Aug-2021 11:41:07 Africa/Nairobi] PHP Notice:  session_start(): A session had already been started - ignoring in C:\xampp74\htdocs\pridesys\super admin\header.php on line 3
[04-Aug-2021 11:41:17 Africa/Nairobi] PHP Deprecated:  Function get_magic_quotes_runtime() is deprecated in C:\xampp74\htdocs\pridesys\config\includes\fpdf\fpdf.php on line 1043
[04-Aug-2021 11:41:17 Africa/Nairobi] PHP Notice:  session_start(): A session had already been started - ignoring in C:\xampp74\htdocs\pridesys\super admin\header.php on line 3
[04-Aug-2021 12:37:58 Africa/Nairobi] PHP Deprecated:  Function get_magic_quotes_runtime() is deprecated in C:\xampp74\htdocs\pridesys\super admin\config\includes\fpdf\fpdf.php on line 1043
[04-Aug-2021 12:37:58 Africa/Nairobi] PHP Notice:  session_start(): A session had already been started - ignoring in C:\xampp74\htdocs\pridesys\super admin\header.php on line 3
[04-Aug-2021 12:39:13 Africa/Nairobi] PHP Deprecated:  Function get_magic_quotes_runtime() is deprecated in C:\xampp74\htdocs\pridesys\super admin\config\includes\fpdf\fpdf.php on line 1043
[04-Aug-2021 12:39:13 Africa/Nairobi] PHP Notice:  session_start(): A session had already been started - ignoring in C:\xampp74\htdocs\pridesys\super admin\header.php on line 3
[04-Aug-2021 12:39:17 Africa/Nairobi] PHP Deprecated:  Function get_magic_quotes_runtime() is deprecated in C:\xampp74\htdocs\pridesys\config\includes\fpdf\fpdf.php on line 1043
[04-Aug-2021 12:39:17 Africa/Nairobi] PHP Notice:  session_start(): A session had already been started - ignoring in C:\xampp74\htdocs\pridesys\super admin\header.php on line 3
[04-Aug-2021 12:39:21 Africa/Nairobi] PHP Deprecated:  Function get_magic_quotes_runtime() is deprecated in C:\xampp74\htdocs\pridesys\super admin\config\includes\fpdf\fpdf.php on line 1043
[04-Aug-2021 12:39:21 Africa/Nairobi] PHP Notice:  session_start(): A session had already been started - ignoring in C:\xampp74\htdocs\pridesys\super admin\header.php on line 3
[04-Aug-2021 12:58:12 Africa/Nairobi] PHP Deprecated:  Function get_magic_quotes_runtime() is deprecated in C:\xampp74\htdocs\pridesys\super admin\config\includes\fpdf\fpdf.php on line 1043
[04-Aug-2021 12:58:12 Africa/Nairobi] PHP Notice:  session_start(): A session had already been started - ignoring in C:\xampp74\htdocs\pridesys\super admin\header.php on line 3
[04-Aug-2021 12:58:14 Africa/Nairobi] PHP Deprecated:  Function get_magic_quotes_runtime() is deprecated in C:\xampp74\htdocs\pridesys\super admin\config\includes\fpdf\fpdf.php on line 1043
[04-Aug-2021 12:58:14 Africa/Nairobi] PHP Notice:  session_start(): A session had already been started - ignoring in C:\xampp74\htdocs\pridesys\super admin\header.php on line 3
[04-Aug-2021 12:58:26 Africa/Nairobi] PHP Deprecated:  Function get_magic_quotes_runtime() is deprecated in C:\xampp74\htdocs\pridesys\super admin\config\includes\fpdf\fpdf.php on line 1043
[04-Aug-2021 12:58:26 Africa/Nairobi] PHP Notice:  Undefined index: superadmin_superadmin_email_add in C:\xampp74\htdocs\pridesys\super admin\functions\dashboard.php on line 7
[04-Aug-2021 12:58:26 Africa/Nairobi] PHP Notice:  session_start(): A session had already been started - ignoring in C:\xampp74\htdocs\pridesys\super admin\header.php on line 3
[10-Aug-2021 09:07:42 Africa/Nairobi] PHP Deprecated:  Function get_magic_quotes_runtime() is deprecated in C:\xampp74\htdocs\pridesys\config\includes\fpdf\fpdf.php on line 1043
[10-Aug-2021 09:07:42 Africa/Nairobi] PHP Notice:  Undefined index: superadmin_superadmin_email_add in C:\xampp74\htdocs\pridesys\super admin\functions\dashboard.php on line 7
[10-Aug-2021 09:07:42 Africa/Nairobi] PHP Notice:  session_start(): A session had already been started - ignoring in C:\xampp74\htdocs\pridesys\super admin\header.php on line 3
[10-Aug-2021 09:48:07 Africa/Nairobi] PHP Deprecated:  Function get_magic_quotes_runtime() is deprecated in C:\xampp74\htdocs\pridesys\config\includes\fpdf\fpdf.php on line 1043
[10-Aug-2021 09:48:07 Africa/Nairobi] PHP Notice:  Undefined index: superadmin_superadmin_email_add in C:\xampp74\htdocs\pridesys\super admin\functions\dashboard.php on line 7
[10-Aug-2021 09:48:07 Africa/Nairobi] PHP Notice:  session_start(): A session had already been started - ignoring in C:\xampp74\htdocs\pridesys\super admin\header.php on line 3
[10-Aug-2021 09:48:09 Africa/Nairobi] PHP Deprecated:  Function get_magic_quotes_runtime() is deprecated in C:\xampp74\htdocs\pridesys\super admin\config\includes\fpdf\fpdf.php on line 1043
[10-Aug-2021 09:48:10 Africa/Nairobi] PHP Notice:  session_start(): A session had already been started - ignoring in C:\xampp74\htdocs\pridesys\super admin\header.php on line 3
[10-Aug-2021 09:48:13 Africa/Nairobi] PHP Deprecated:  Function get_magic_quotes_runtime() is deprecated in C:\xampp74\htdocs\pridesys\super admin\config\includes\fpdf\fpdf.php on line 1043
[10-Aug-2021 09:48:13 Africa/Nairobi] PHP Notice:  session_start(): A session had already been started - ignoring in C:\xampp74\htdocs\pridesys\super admin\header.php on line 3
[10-Aug-2021 09:48:13 Africa/Nairobi] PHP Notice:  Trying to access array offset on value of type bool in C:\xampp74\htdocs\pridesys\super admin\views\job_card.php on line 77
[10-Aug-2021 09:48:22 Africa/Nairobi] PHP Deprecated:  Function get_magic_quotes_runtime() is deprecated in C:\xampp74\htdocs\pridesys\super admin\config\includes\fpdf\fpdf.php on line 1043
[10-Aug-2021 09:48:22 Africa/Nairobi] PHP Notice:  session_start(): A session had already been started - ignoring in C:\xampp74\htdocs\pridesys\super admin\header.php on line 3
[10-Aug-2021 09:50:13 Africa/Nairobi] PHP Deprecated:  Function get_magic_quotes_runtime() is deprecated in C:\xampp74\htdocs\pridesys\super admin\config\includes\fpdf\fpdf.php on line 1043
[10-Aug-2021 09:50:13 Africa/Nairobi] PHP Notice:  session_start(): A session had already been started - ignoring in C:\xampp74\htdocs\pridesys\super admin\header.php on line 3
[10-Aug-2021 09:50:22 Africa/Nairobi] PHP Deprecated:  Function get_magic_quotes_runtime() is deprecated in C:\xampp74\htdocs\pridesys\super admin\config\includes\fpdf\fpdf.php on line 1043
[10-Aug-2021 09:50:22 Africa/Nairobi] PHP Notice:  session_start(): A session had already been started - ignoring in C:\xampp74\htdocs\pridesys\super admin\header.php on line 3
[10-Aug-2021 09:50:25 Africa/Nairobi] PHP Deprecated:  Function get_magic_quotes_runtime() is deprecated in C:\xampp74\htdocs\pridesys\super admin\config\includes\fpdf\fpdf.php on line 1043
[10-Aug-2021 09:50:25 Africa/Nairobi] PHP Notice:  session_start(): A session had already been started - ignoring in C:\xampp74\htdocs\pridesys\super admin\header.php on line 3
[10-Aug-2021 09:51:53 Africa/Nairobi] PHP Deprecated:  Function get_magic_quotes_runtime() is deprecated in C:\xampp74\htdocs\pridesys\super admin\config\includes\fpdf\fpdf.php on line 1043
[10-Aug-2021 09:51:53 Africa/Nairobi] PHP Notice:  session_start(): A session had already been started - ignoring in C:\xampp74\htdocs\pridesys\super admin\header.php on line 3
[10-Aug-2021 09:52:29 Africa/Nairobi] PHP Deprecated:  Function get_magic_quotes_runtime() is deprecated in C:\xampp74\htdocs\pridesys\super admin\config\includes\fpdf\fpdf.php on line 1043
[10-Aug-2021 09:52:29 Africa/Nairobi] PHP Notice:  session_start(): A session had already been started - ignoring in C:\xampp74\htdocs\pridesys\super admin\header.php on line 3
[10-Aug-2021 09:52:50 Africa/Nairobi] PHP Deprecated:  Function get_magic_quotes_runtime() is deprecated in C:\xampp74\htdocs\pridesys\super admin\config\includes\fpdf\fpdf.php on line 1043
[10-Aug-2021 09:52:50 Africa/Nairobi] PHP Notice:  session_start(): A session had already been started - ignoring in C:\xampp74\htdocs\pridesys\super admin\header.php on line 3
[10-Aug-2021 09:52:55 Africa/Nairobi] PHP Deprecated:  Function get_magic_quotes_runtime() is deprecated in C:\xampp74\htdocs\pridesys\super admin\config\includes\fpdf\fpdf.php on line 1043
[10-Aug-2021 09:52:55 Africa/Nairobi] PHP Notice:  session_start(): A session had already been started - ignoring in C:\xampp74\htdocs\pridesys\super admin\header.php on line 3
[10-Aug-2021 09:53:41 Africa/Nairobi] PHP Deprecated:  Function get_magic_quotes_runtime() is deprecated in C:\xampp74\htdocs\pridesys\super admin\config\includes\fpdf\fpdf.php on line 1043
[10-Aug-2021 09:53:41 Africa/Nairobi] PHP Notice:  session_start(): A session had already been started - ignoring in C:\xampp74\htdocs\pridesys\super admin\header.php on line 3
[10-Aug-2021 09:54:47 Africa/Nairobi] PHP Deprecated:  Function get_magic_quotes_runtime() is deprecated in C:\xampp74\htdocs\pridesys\super admin\config\includes\fpdf\fpdf.php on line 1043
[10-Aug-2021 09:54:55 Africa/Nairobi] PHP Deprecated:  Function get_magic_quotes_runtime() is deprecated in C:\xampp74\htdocs\pridesys\super admin\config\includes\fpdf\fpdf.php on line 1043
[10-Aug-2021 13:54:36 Africa/Nairobi] PHP Deprecated:  Function get_magic_quotes_runtime() is deprecated in C:\xampp74\htdocs\pridesys\super admin\config\includes\fpdf\fpdf.php on line 1043
[10-Aug-2021 13:54:36 Africa/Nairobi] PHP Notice:  Trying to access array offset on value of type bool in C:\xampp74\htdocs\pridesys\super admin\functions\sub_admin.php on line 16
[10-Aug-2021 13:54:36 Africa/Nairobi] PHP Notice:  Undefined index: superadmin_email_add in C:\xampp74\htdocs\pridesys\super admin\header.php on line 8
[10-Aug-2021 13:54:36 Africa/Nairobi] PHP Notice:  Trying to access array offset on value of type bool in C:\xampp74\htdocs\pridesys\super admin\header.php on line 13
[10-Aug-2021 14:50:41 Africa/Nairobi] PHP Deprecated:  Function get_magic_quotes_runtime() is deprecated in C:\xampp74\htdocs\pridesys\config\includes\fpdf\fpdf.php on line 1043
[10-Aug-2021 14:50:41 Africa/Nairobi] PHP Notice:  Undefined index: superadmin_superadmin_email_add in C:\xampp74\htdocs\pridesys\super admin\functions\dashboard.php on line 7
[10-Aug-2021 14:50:45 Africa/Nairobi] PHP Deprecated:  Function get_magic_quotes_runtime() is deprecated in C:\xampp74\htdocs\pridesys\super admin\config\includes\fpdf\fpdf.php on line 1043
[10-Aug-2021 15:02:22 Africa/Nairobi] PHP Deprecated:  Function get_magic_quotes_runtime() is deprecated in C:\xampp74\htdocs\pridesys\super admin\config\includes\fpdf\fpdf.php on line 1043
[11-Aug-2021 09:31:58 Africa/Nairobi] PHP Deprecated:  Function get_magic_quotes_runtime() is deprecated in C:\xampp74\htdocs\pridesys\config\includes\fpdf\fpdf.php on line 1043
[11-Aug-2021 09:31:58 Africa/Nairobi] PHP Notice:  Undefined index: superadmin_superadmin_email_add in C:\xampp74\htdocs\pridesys\super admin\functions\dashboard.php on line 7
[11-Aug-2021 09:32:01 Africa/Nairobi] PHP Deprecated:  Function get_magic_quotes_runtime() is deprecated in C:\xampp74\htdocs\pridesys\super admin\config\includes\fpdf\fpdf.php on line 1043
[11-Aug-2021 09:32:41 Africa/Nairobi] PHP Deprecated:  Function get_magic_quotes_runtime() is deprecated in C:\xampp74\htdocs\pridesys\super admin\config\includes\fpdf\fpdf.php on line 1043
[13-Aug-2021 09:14:24 Africa/Nairobi] PHP Notice:  Undefined index: superadmin_superadmin_email_add in C:\xampp74\htdocs\pridesys\super admin\functions\dashboard.php on line 7
[13-Aug-2021 09:14:38 Africa/Nairobi] PHP Deprecated:  Function get_magic_quotes_runtime() is deprecated in C:\xampp74\htdocs\pridesys\super admin\config\includes\fpdf\fpdf.php on line 1043
[13-Aug-2021 09:14:54 Africa/Nairobi] PHP Deprecated:  Function get_magic_quotes_runtime() is deprecated in C:\xampp74\htdocs\pridesys\super admin\config\includes\fpdf\fpdf.php on line 1043
[13-Aug-2021 14:17:43 Africa/Nairobi] PHP Deprecated:  Function get_magic_quotes_runtime() is deprecated in C:\xampp74\htdocs\pridesys\super admin\config\includes\fpdf\fpdf.php on line 1043
[13-Aug-2021 14:18:33 Africa/Nairobi] PHP Deprecated:  Function get_magic_quotes_runtime() is deprecated in C:\xampp74\htdocs\pridesys\super admin\config\includes\fpdf\fpdf.php on line 1043
[13-Aug-2021 14:18:41 Africa/Nairobi] PHP Deprecated:  Function get_magic_quotes_runtime() is deprecated in C:\xampp74\htdocs\pridesys\super admin\config\includes\fpdf\fpdf.php on line 1043
[13-Aug-2021 14:18:46 Africa/Nairobi] PHP Deprecated:  Function get_magic_quotes_runtime() is deprecated in C:\xampp74\htdocs\pridesys\super admin\config\includes\fpdf\fpdf.php on line 1043
[13-Aug-2021 14:18:53 Africa/Nairobi] PHP Deprecated:  Function get_magic_quotes_runtime() is deprecated in C:\xampp74\htdocs\pridesys\super admin\config\includes\fpdf\fpdf.php on line 1043
[13-Aug-2021 14:20:09 Africa/Nairobi] PHP Warning:  include(../../config/includes/initialise.php): failed to open stream: No such file or directory in C:\xampp74\htdocs\pridesys\super admin\add_sub_admin.php on line 5
[13-Aug-2021 14:20:09 Africa/Nairobi] PHP Warning:  include(): Failed opening '../../config/includes/initialise.php' for inclusion (include_path='C:\xampp74\php\PEAR') in C:\xampp74\htdocs\pridesys\super admin\add_sub_admin.php on line 5
[13-Aug-2021 14:20:13 Africa/Nairobi] PHP Deprecated:  Function get_magic_quotes_runtime() is deprecated in C:\xampp74\htdocs\pridesys\super admin\config\includes\fpdf\fpdf.php on line 1043
[13-Aug-2021 14:20:14 Africa/Nairobi] PHP Warning:  include(../../config/includes/initialise.php): failed to open stream: No such file or directory in C:\xampp74\htdocs\pridesys\super admin\add_sub_admin.php on line 5
[13-Aug-2021 14:20:14 Africa/Nairobi] PHP Warning:  include(): Failed opening '../../config/includes/initialise.php' for inclusion (include_path='C:\xampp74\php\PEAR') in C:\xampp74\htdocs\pridesys\super admin\add_sub_admin.php on line 5
[13-Aug-2021 14:20:25 Africa/Nairobi] PHP Deprecated:  Function get_magic_quotes_runtime() is deprecated in C:\xampp74\htdocs\pridesys\super admin\config\includes\fpdf\fpdf.php on line 1043
[13-Aug-2021 14:47:33 Africa/Nairobi] PHP Notice:  Trying to access array offset on value of type bool in C:\xampp74\htdocs\pridesys\super admin\functions\sub_admin.php on line 16
[13-Aug-2021 14:47:33 Africa/Nairobi] PHP Notice:  Undefined index: superadmin_email_add in C:\xampp74\htdocs\pridesys\super admin\header.php on line 8
[13-Aug-2021 14:47:33 Africa/Nairobi] PHP Notice:  Trying to access array offset on value of type bool in C:\xampp74\htdocs\pridesys\super admin\header.php on line 13
[13-Aug-2021 15:07:33 Africa/Nairobi] PHP Notice:  Undefined variable: job_card_more_feature in C:\xampp74\htdocs\pridesys\super admin\views\sub_admin.php on line 178
[13-Aug-2021 15:07:33 Africa/Nairobi] PHP Notice:  Undefined variable: job_card_more_feature in C:\xampp74\htdocs\pridesys\super admin\views\sub_admin.php on line 178
[13-Aug-2021 15:07:33 Africa/Nairobi] PHP Notice:  Undefined variable: job_card_more_feature in C:\xampp74\htdocs\pridesys\super admin\views\sub_admin.php on line 178
[13-Aug-2021 15:07:33 Africa/Nairobi] PHP Notice:  Undefined variable: job_card_more_feature in C:\xampp74\htdocs\pridesys\super admin\views\sub_admin.php on line 178
[13-Aug-2021 15:07:33 Africa/Nairobi] PHP Notice:  Undefined variable: job_card_more_feature in C:\xampp74\htdocs\pridesys\super admin\views\sub_admin.php on line 178
[13-Aug-2021 15:07:33 Africa/Nairobi] PHP Notice:  Undefined variable: job_card_more_feature in C:\xampp74\htdocs\pridesys\super admin\views\sub_admin.php on line 178
[14-Aug-2021 09:36:03 Africa/Nairobi] PHP Notice:  Undefined variable: job_card_more_feature in C:\xampp74\htdocs\pridesys\super admin\views\sub_admin.php on line 178
[14-Aug-2021 09:36:03 Africa/Nairobi] PHP Notice:  Undefined variable: job_card_more_feature in C:\xampp74\htdocs\pridesys\super admin\views\sub_admin.php on line 178
[14-Aug-2021 09:36:03 Africa/Nairobi] PHP Notice:  Undefined variable: job_card_more_feature in C:\xampp74\htdocs\pridesys\super admin\views\sub_admin.php on line 178
[14-Aug-2021 09:36:03 Africa/Nairobi] PHP Notice:  Undefined variable: job_card_more_feature in C:\xampp74\htdocs\pridesys\super admin\views\sub_admin.php on line 178
[14-Aug-2021 09:36:03 Africa/Nairobi] PHP Notice:  Undefined variable: job_card_more_feature in C:\xampp74\htdocs\pridesys\super admin\views\sub_admin.php on line 178
[14-Aug-2021 09:36:03 Africa/Nairobi] PHP Notice:  Undefined variable: job_card_more_feature in C:\xampp74\htdocs\pridesys\super admin\views\sub_admin.php on line 178
[14-Aug-2021 10:29:17 Africa/Nairobi] PHP Notice:  Trying to access array offset on value of type bool in C:\xampp74\htdocs\pridesys\super admin\functions\sub_admin.php on line 16
[14-Aug-2021 10:29:17 Africa/Nairobi] PHP Notice:  Undefined index: superadmin_email_add in C:\xampp74\htdocs\pridesys\super admin\header.php on line 8
[14-Aug-2021 10:29:17 Africa/Nairobi] PHP Notice:  Trying to access array offset on value of type bool in C:\xampp74\htdocs\pridesys\super admin\header.php on line 13
[02-Sep-2021 12:50:15 Africa/Nairobi] PHP Deprecated:  Function get_magic_quotes_runtime() is deprecated in C:\xampp74\htdocs\pridesys\config\includes\fpdf\fpdf.php on line 1044
[02-Sep-2021 12:50:22 Africa/Nairobi] PHP Deprecated:  Function get_magic_quotes_runtime() is deprecated in C:\xampp74\htdocs\pridesys\config\includes\fpdf\fpdf.php on line 1044
[02-Sep-2021 12:50:23 Africa/Nairobi] PHP Deprecated:  Function get_magic_quotes_runtime() is deprecated in C:\xampp74\htdocs\pridesys\config\includes\fpdf\fpdf.php on line 1044
[02-Sep-2021 14:02:54 Africa/Nairobi] PHP Deprecated:  Function get_magic_quotes_runtime() is deprecated in C:\xampp74\htdocs\pridesys\config\includes\fpdf\fpdf.php on line 1044
[02-Sep-2021 14:06:08 Africa/Nairobi] PHP Deprecated:  Function get_magic_quotes_runtime() is deprecated in C:\xampp74\htdocs\pridesys\config\includes\fpdf\fpdf.php on line 1044
[02-Sep-2021 14:06:52 Africa/Nairobi] PHP Deprecated:  Function get_magic_quotes_runtime() is deprecated in C:\xampp74\htdocs\pridesys\config\includes\fpdf\fpdf.php on line 1044
[02-Sep-2021 14:07:08 Africa/Nairobi] PHP Deprecated:  Function get_magic_quotes_runtime() is deprecated in C:\xampp74\htdocs\pridesys\config\includes\fpdf\fpdf.php on line 1044
[02-Sep-2021 14:27:06 Africa/Nairobi] PHP Deprecated:  Function get_magic_quotes_runtime() is deprecated in C:\xampp74\htdocs\pridesys\config\includes\fpdf\fpdf.php on line 1044
[02-Sep-2021 14:29:34 Africa/Nairobi] PHP Deprecated:  Function get_magic_quotes_runtime() is deprecated in C:\xampp74\htdocs\pridesys\config\includes\fpdf\fpdf.php on line 1044
[02-Sep-2021 14:30:06 Africa/Nairobi] PHP Deprecated:  Function get_magic_quotes_runtime() is deprecated in C:\xampp74\htdocs\pridesys\config\includes\fpdf\fpdf.php on line 1044
[02-Sep-2021 14:30:26 Africa/Nairobi] PHP Deprecated:  Function get_magic_quotes_runtime() is deprecated in C:\xampp74\htdocs\pridesys\config\includes\fpdf\fpdf.php on line 1044
[02-Sep-2021 14:34:42 Africa/Nairobi] PHP Deprecated:  Function get_magic_quotes_runtime() is deprecated in C:\xampp74\htdocs\pridesys\config\includes\fpdf\fpdf.php on line 1044
[02-Sep-2021 14:36:15 Africa/Nairobi] PHP Deprecated:  Function get_magic_quotes_runtime() is deprecated in C:\xampp74\htdocs\pridesys\config\includes\fpdf\fpdf.php on line 1044
[02-Sep-2021 14:36:48 Africa/Nairobi] PHP Deprecated:  Function get_magic_quotes_runtime() is deprecated in C:\xampp74\htdocs\pridesys\config\includes\fpdf\fpdf.php on line 1044
[02-Sep-2021 14:38:39 Africa/Nairobi] PHP Deprecated:  Function get_magic_quotes_runtime() is deprecated in C:\xampp74\htdocs\pridesys\config\includes\fpdf\fpdf.php on line 1044
[02-Sep-2021 14:38:42 Africa/Nairobi] PHP Deprecated:  Function get_magic_quotes_runtime() is deprecated in C:\xampp74\htdocs\pridesys\config\includes\fpdf\fpdf.php on line 1044
[04-Oct-2021 11:33:33 Africa/Nairobi] PHP Deprecated:  Function get_magic_quotes_runtime() is deprecated in C:\xampp74\htdocs\pridesys\config\includes\fpdf\fpdf.php on line 1044
[04-Oct-2021 11:34:41 Africa/Nairobi] PHP Deprecated:  Function get_magic_quotes_runtime() is deprecated in C:\xampp74\htdocs\pridesys\config\includes\fpdf\fpdf.php on line 1044
[04-Oct-2021 11:44:56 Africa/Nairobi] PHP Deprecated:  Function get_magic_quotes_runtime() is deprecated in C:\xampp74\htdocs\pridesys\config\includes\fpdf\fpdf.php on line 1044
[04-Oct-2021 11:45:27 Africa/Nairobi] PHP Deprecated:  Function get_magic_quotes_runtime() is deprecated in C:\xampp74\htdocs\pridesys\config\includes\fpdf\fpdf.php on line 1044
[04-Oct-2021 11:46:30 Africa/Nairobi] PHP Deprecated:  Function get_magic_quotes_runtime() is deprecated in C:\xampp74\htdocs\pridesys\config\includes\fpdf\fpdf.php on line 1044
[04-Oct-2021 11:46:37 Africa/Nairobi] PHP Deprecated:  Function get_magic_quotes_runtime() is deprecated in C:\xampp74\htdocs\pridesys\config\includes\fpdf\fpdf.php on line 1044
[04-Oct-2021 11:49:34 Africa/Nairobi] PHP Deprecated:  Function get_magic_quotes_runtime() is deprecated in C:\xampp74\htdocs\pridesys\config\includes\fpdf\fpdf.php on line 1044
[04-Oct-2021 11:55:16 Africa/Nairobi] PHP Deprecated:  Function get_magic_quotes_runtime() is deprecated in C:\xampp74\htdocs\pridesys\config\includes\fpdf\fpdf.php on line 1044
[04-Oct-2021 11:56:34 Africa/Nairobi] PHP Deprecated:  Function get_magic_quotes_runtime() is deprecated in C:\xampp74\htdocs\pridesys\config\includes\fpdf\fpdf.php on line 1044
[04-Oct-2021 13:47:55 Africa/Nairobi] PHP Deprecated:  Function get_magic_quotes_runtime() is deprecated in C:\xampp74\htdocs\pridesys\config\includes\fpdf\fpdf.php on line 1044
[04-Oct-2021 13:48:18 Africa/Nairobi] PHP Deprecated:  Function get_magic_quotes_runtime() is deprecated in C:\xampp74\htdocs\pridesys\config\includes\fpdf\fpdf.php on line 1044
[04-Oct-2021 14:03:03 Africa/Nairobi] PHP Deprecated:  Function get_magic_quotes_runtime() is deprecated in C:\xampp74\htdocs\pridesys\config\includes\fpdf\fpdf.php on line 1044
