<?xml version="1.0" encoding="utf-8"?>
<!-- Generator: Adobe Illustrator 16.0.0, SVG Export Plug-In . SVG Version: 6.00 Build 0)  -->
<!DOCTYPE svg PUBLIC "-//W3C//DTD SVG 1.1//EN" "http://www.w3.org/Graphics/SVG/1.1/DTD/svg11.dtd">
<svg version="1.1" id="Layer_1" xmlns="http://www.w3.org/2000/svg" xmlns:xlink="http://www.w3.org/1999/xlink" x="0px" y="0px"
	 width="30px" height="30px" viewBox="0 0 30 30" enable-background="new 0 0 30 30" xml:space="preserve">
<g>
	<path fill-rule="evenodd" clip-rule="evenodd" fill="#F7931E" d="M9.886,21.284c-0.592,0.201-0.982-0.162-1.297-0.736
		c-0.219-0.399-0.504-0.761-0.771-1.131c-0.091-0.129-0.117-0.252-0.106-0.407c0.258-3.383,2.569-6.015,5.908-6.636
		c4.141-0.771,7.884,2.132,8.429,6.037c0.057,0.397,0.005,0.727-0.263,1.059c-0.435,0.528-0.812,1.103-1.214,1.657
		c-0.208,0.288-0.704,0.296-0.926,0.012c-0.633-0.804-1.261-1.613-1.904-2.408c-0.132-0.162-0.151-0.31-0.122-0.5
		c0.195-1.244-0.553-2.378-1.762-2.678c-1.676-0.414-3.218,1.114-2.803,2.783c0.035,0.143,0.008,0.232-0.079,0.342
		c-0.661,0.818-1.317,1.638-1.969,2.464c-0.09,0.114-0.185,0.15-0.323,0.146C10.455,21.277,10.226,21.284,9.886,21.284z"/>
	<path fill-rule="evenodd" clip-rule="evenodd" fill="#F7931E" d="M3.746,22.452c0.583,0.715,0.646,1.397,0.2,2.016
		c-0.384,0.533-1.062,0.739-1.712,0.519C1.637,24.783,1.28,24.23,1.292,23.53c0.012-0.671,0.397-1.318,1.011-1.345
		c0.641-0.026,0.773-0.45,0.982-0.846c0.393-0.741,0.75-1.499,1.119-2.248c-0.817-0.758-0.693-1.706-0.144-2.262
		c0.542-0.552,1.396-0.595,1.991-0.107c0.656,0.539,0.722,1.303,0.178,2.142c0.942,1.393,1.889,2.791,2.831,4.182
		c0.654-0.15,0.654-0.15,1.294,0.056c0.394-0.502,0.793-1.011,1.193-1.52c0.732-0.935,1.465-1.87,2.198-2.805
		c0.072-0.093,0.139-0.158,0.062-0.308c-0.333-0.64-0.188-1.361,0.341-1.814c0.515-0.44,1.244-0.48,1.802-0.097
		c0.583,0.4,0.826,1.125,0.553,1.79c-0.09,0.223-0.035,0.344,0.092,0.504c0.876,1.102,1.748,2.207,2.61,3.318
		c0.122,0.158,0.22,0.23,0.421,0.131c0.229-0.108,0.479-0.116,0.724-0.043c0.119,0.036,0.198,0.023,0.279-0.088
		c0.98-1.354,1.968-2.706,2.953-4.056c0.007-0.011,0.004-0.032,0.007-0.068c-0.236,0-0.471,0.005-0.705-0.001
		c-0.29-0.006-0.477-0.176-0.479-0.419c-0.001-0.235,0.197-0.435,0.468-0.438c0.53-0.008,1.062-0.008,1.592,0.001
		c0.234,0.004,0.412,0.121,0.455,0.359c0.105,0.576,0.197,1.153,0.291,1.729c0.03,0.187-0.029,0.344-0.192,0.451
		c-0.146,0.094-0.296,0.089-0.442,0.007c-0.127-0.07-0.196-0.187-0.22-0.329c-0.033-0.216-0.071-0.432-0.108-0.647
		c-0.091-0.021-0.105,0.059-0.139,0.106c-0.88,1.268-1.759,2.537-2.642,3.802c-0.088,0.126-0.109,0.216-0.029,0.363
		c0.336,0.623,0.24,1.296-0.227,1.769c-0.453,0.458-1.141,0.571-1.718,0.283c-0.595-0.295-0.982-0.938-0.796-1.589
		c0.125-0.441-0.059-0.664-0.285-0.945c-0.836-1.039-1.672-2.081-2.498-3.127c-0.106-0.134-0.19-0.178-0.361-0.114
		c-0.263,0.097-0.545,0.09-0.807-0.008c-0.155-0.058-0.225-0.012-0.315,0.104c-1.103,1.4-2.209,2.796-3.322,4.189
		c-0.097,0.123-0.086,0.205-0.033,0.339c0.256,0.64,0.024,1.378-0.542,1.773c-0.531,0.37-1.255,0.339-1.757-0.078
		c-0.531-0.443-0.695-1.185-0.383-1.812c0.063-0.126,0.051-0.204-0.025-0.315c-0.911-1.325-1.815-2.655-2.723-3.982
		c-0.136-0.199-0.539-0.177-0.647,0.038C4.714,20.517,4.233,21.48,3.746,22.452z"/>
	<path fill-rule="evenodd" clip-rule="evenodd" fill="#F7931E" d="M14.939,4.036c1.871,0,3.396,1.522,3.402,3.4
		c0.005,1.834-1.55,3.374-3.406,3.369c-1.861-0.005-3.416-1.542-3.41-3.373C11.531,5.566,13.068,4.037,14.939,4.036z"/>
	<path fill-rule="evenodd" clip-rule="evenodd" fill="#F7931E" d="M10.548,9.593c0.018,1.567-1.26,2.892-2.813,2.914
		C6.114,12.53,4.78,11.288,4.761,9.738c-0.021-1.673,1.253-3.01,2.88-3.022C9.235,6.705,10.529,7.985,10.548,9.593z"/>
	<path fill-rule="evenodd" clip-rule="evenodd" fill="#F7931E" d="M22.206,6.716c1.571-0.019,2.891,1.272,2.915,2.848
		c0.024,1.6-1.272,2.927-2.875,2.942c-1.592,0.015-2.913-1.278-2.927-2.861C19.307,8.037,20.591,6.734,22.206,6.716z"/>
	<path fill-rule="evenodd" clip-rule="evenodd" fill="#F7931E" d="M20.652,13.794c2.289-0.661,4.888,0.218,6.364,2.115
		c0.926,1.188,1.397,2.526,1.377,4.035c-0.003,0.284,0.008,0.567-0.003,0.849c-0.009,0.275-0.161,0.438-0.423,0.44
		c-1.415,0.005-2.83,0.003-4.297,0.003c0.236-0.313,0.448-0.592,0.669-0.882c0.219,0.123,0.44,0.208,0.688,0.239
		c0.819,0.102,1.459-0.729,1.324-1.434c-0.115-0.608-0.222-1.221-0.362-1.824c-0.138-0.591-0.65-0.982-1.256-0.989
		c-0.559-0.006-1.115,0.001-1.673-0.004c-0.216-0.002-0.409,0.069-0.628,0.163C22,15.502,21.438,14.594,20.652,13.794z"/>
	<path fill-rule="evenodd" clip-rule="evenodd" fill="#F7931E" d="M9.222,13.793c-0.835,0.847-1.456,1.79-1.847,2.881
		c-0.102-0.038-0.126-0.125-0.174-0.188c-0.737-0.965-2.095-1.198-3.115-0.529c-1.035,0.68-1.372,1.992-0.769,3.056
		c0.091,0.162,0.101,0.281,0.015,0.443c-0.287,0.54-0.568,1.083-0.832,1.633c-0.141,0.296-0.388,0.194-0.596,0.185
		s-0.37-0.147-0.376-0.368c-0.035-1.235-0.027-2.464,0.487-3.634C3.227,14.514,6.357,12.982,9.222,13.793z"/>
	<path fill-rule="evenodd" clip-rule="evenodd" fill="#F7931E" d="M16.547,21.313c-0.814,0-1.566,0-2.37,0
		c0.313-0.383,0.594-0.734,0.888-1.078c0.088-0.104,0.524-0.092,0.61,0.01C15.961,20.587,16.237,20.934,16.547,21.313z"/>
</g>
</svg>
